<?xml version="1.0" encoding="utf-8"?>
<!-- Generator: Adobe Illustrator 21.1.0, SVG Export Plug-In . SVG Version: 6.00 Build 0)  -->
<svg version="1.1" id="Layer_1" xmlns="http://www.w3.org/2000/svg" xmlns:xlink="http://www.w3.org/1999/xlink" x="0px" y="0px"
	 viewBox="0 0 200 40" style="enable-background:new 0 0 200 40;" xml:space="preserve">
<style type="text/css">
	.st0{fill:#002F47;}
	.st1{fill-rule:evenodd;clip-rule:evenodd;fill:#002F47;}
	.st2{fill-rule:evenodd;clip-rule:evenodd;fill:#6E97A7;}
	.st3{fill:#6E97A7;}
	.st4{fill:#6F96A7;}
	.st5{fill:none;}
	.st6{fill:url(#SVGID_1_);}
	.st7{fill-rule:evenodd;clip-rule:evenodd;fill:#6F96A7;}
</style>
<g>
	<g>
		<g>
			<path class="st0" d="M23,1.9c-10,0-18,8.1-18,18c0,10,8.1,18,18,18c3.4,0,6.6-0.9,9.3-2.6l-0.7-2C29.2,35,26.2,36,23,36
				c-8.8,0-16-7.2-16-16S14.2,4,23,4c8.8,0,16,7.2,16,16c0,1.7-0.3,3.3-0.8,4.9l1.9,0.6c0.6-1.7,0.9-3.6,0.9-5.5
				C41.1,10,33,1.9,23,1.9z"/>
			<path class="st0" d="M29.3,7.8c-1.6-1-3.8-1.7-5.2-1.8c-0.3,0-0.6,0-0.9,0c-2.3,0-4.5,0.6-6.5,1.8c1.3-0.4,2.6-0.7,3.9-0.7
				c3.9,0,7.6,1.9,9.9,5.1l0.1,0.1c0.2,0.3,0.3,0.4,0.3,0.6c0,0.2-0.2,0.2-0.5,0.4l-0.2,0.1c-2,1.3-4.7,2-7.4,2c-3.1,0-6-1-7.8-2.6
				c-0.1-0.1-0.1-0.1-0.2-0.2c-0.2-0.1-0.2-0.2-0.2-0.3c0-0.1,0.1-0.2,0.4-0.3c1.7-0.8,3.9-1.2,5.8-1.2c1.4,0,2.6,0.2,3.7,0.6
				c-1.1-0.7-2.7-1.1-4.5-1.1c-1.7,0-3.3,0.4-4.7,1c-3.5,1.7-5.8,5.2-6,9.2c-0.1,2.2,0.3,3.9,1.3,5.8c1.2,2.2,2.9,3.9,5,5.1
				c-4-3.5-5.3-9.3-3.1-14.2l0.1-0.2c0.2-0.4,0.3-0.6,0.5-0.6c0.1,0,0.3,0.1,0.5,0.2l0.2,0.1c4.3,2.1,8.2,8.4,7.1,13.5
				c0,0.1,0,0.2,0,0.2c0,0.2-0.1,0.4-0.2,0.4c-0.1,0-0.2-0.1-0.4-0.2c-2.4-1.7-4.8-4.8-5.3-7.9c-0.1,2.6,1.8,6.2,4.5,8
				c1.7,1.2,3.8,1.8,5.9,1.8c1.6,0,3.2-0.4,4.7-1c0.3-0.1,0.6-0.3,0.9-0.5l-0.7-2.1c-1.3,0.7-2.7,1.1-4.2,1.2l-0.2,0
				c-0.2,0-0.3,0-0.4,0c-0.4,0-0.4-0.2-0.4-0.7l0-0.2c-0.3-4.8,3.1-11.3,8.1-12.9c0.1,0,0.2-0.1,0.2-0.1c0.1,0,0.2-0.1,0.3-0.1
				c0.1,0,0.1,0,0.1,0.1c0.1,0.1,0.1,0.2,0,0.5c-0.2,1.8-0.9,4-2,5.8l0.5,0.1c1.1-1.5,1.8-3.5,2-5.4C34.6,13.7,32.7,9.9,29.3,7.8z"
				/>
		</g>
	</g>
	<polygon class="st2" points="30.7,24.4 44.6,28.9 39.9,31.3 44.6,35.8 43.4,37 42.2,38.2 37.7,33.6 35.3,38.3 	"/>
	<g>
		<g>
			<g>
				<g>
					<path class="st0" d="M51,23.7V8.1h5.5c5.5,0,8.3,2.5,8.3,7.6c0,2.4-0.8,4.4-2.3,5.8s-3.5,2.2-6,2.2H51z M54.5,11v9.9h1.7
						c1.5,0,2.7-0.5,3.6-1.4c0.9-0.9,1.3-2.1,1.3-3.7c0-1.5-0.4-2.6-1.3-3.5c-0.9-0.8-2.1-1.3-3.6-1.3H54.5z"/>
					<path class="st0" d="M73.6,15.7c-0.4-0.2-0.9-0.3-1.4-0.3c-0.7,0-1.3,0.3-1.7,0.8c-0.4,0.5-0.6,1.3-0.6,2.2v5.3h-3.4V12.6h3.4
						v2.1h0c0.5-1.5,1.5-2.3,2.9-2.3c0.4,0,0.6,0,0.8,0.1V15.7z"/>
					<path class="st0" d="M76.3,10.8c-0.6,0-1.1-0.2-1.4-0.5C74.5,10,74.3,9.5,74.3,9c0-0.5,0.2-0.9,0.6-1.3
						c0.4-0.3,0.8-0.5,1.4-0.5c0.6,0,1.1,0.2,1.4,0.5c0.4,0.3,0.5,0.7,0.5,1.3c0,0.5-0.2,0.9-0.5,1.3C77.4,10.6,76.9,10.8,76.3,10.8
						z M78,23.7h-3.4V12.6H78V23.7z"/>
					<path class="st0" d="M90.8,12.6l-4.1,11.1h-3.9l-3.9-11.1h3.7l1.9,6.8c0.2,0.8,0.3,1.4,0.4,2h0c0.1-0.5,0.2-1.1,0.4-1.9l2-6.9
						H90.8z"/>
					<path class="st0" d="M101.3,19.1h-7.2c0.1,1.6,1.1,2.4,3,2.4c1.2,0,2.3-0.3,3.2-0.9v2.5c-1,0.5-2.4,0.8-4,0.8
						c-1.8,0-3.2-0.5-4.2-1.5c-1-1-1.5-2.4-1.5-4.2c0-1.8,0.5-3.3,1.6-4.4c1.1-1.1,2.4-1.6,3.9-1.6c1.6,0,2.9,0.5,3.8,1.4
						c0.9,1,1.3,2.3,1.3,3.9V19.1z M98.2,17c0-1.6-0.6-2.4-1.9-2.4c-0.5,0-1,0.2-1.4,0.7s-0.6,1-0.7,1.7H98.2z"/>
					<path class="st0" d="M110,15.7c-0.4-0.2-0.9-0.3-1.4-0.3c-0.7,0-1.3,0.3-1.7,0.8c-0.4,0.5-0.6,1.3-0.6,2.2v5.3h-3.4V12.6h3.4
						v2.1h0c0.5-1.5,1.5-2.3,2.9-2.3c0.4,0,0.6,0,0.8,0.1V15.7z"/>
					<path class="st0" d="M125.9,23.7h-9.3V8.1h3.5v12.7h5.8V23.7z"/>
					<path class="st0" d="M128.8,10.8c-0.6,0-1.1-0.2-1.4-0.5c-0.4-0.3-0.6-0.8-0.6-1.3c0-0.5,0.2-0.9,0.6-1.3
						c0.4-0.3,0.8-0.5,1.4-0.5c0.6,0,1.1,0.2,1.4,0.5c0.4,0.3,0.5,0.7,0.5,1.3c0,0.5-0.2,0.9-0.5,1.3
						C129.8,10.6,129.3,10.8,128.8,10.8z M130.5,23.7H127V12.6h3.4V23.7z"/>
					<path class="st0" d="M141.1,23.3c-0.8,0.4-1.9,0.7-3.3,0.7c-1.7,0-3.1-0.5-4.1-1.5c-1.1-1-1.6-2.4-1.6-4c0-1.9,0.6-3.4,1.7-4.5
						c1.1-1.1,2.6-1.6,4.5-1.6c1.3,0,2.3,0.2,2.8,0.5v2.9c-0.7-0.5-1.5-0.8-2.4-0.8c-1,0-1.8,0.3-2.3,0.9c-0.6,0.6-0.9,1.4-0.9,2.4
						c0,1,0.3,1.8,0.8,2.3c0.5,0.6,1.3,0.8,2.3,0.8c0.9,0,1.7-0.3,2.5-0.8V23.3z"/>
					<path class="st0" d="M152.6,19.1h-7.2c0.1,1.6,1.1,2.4,3,2.4c1.2,0,2.3-0.3,3.2-0.9v2.5c-1,0.5-2.4,0.8-4,0.8
						c-1.8,0-3.2-0.5-4.2-1.5c-1-1-1.5-2.4-1.5-4.2c0-1.8,0.5-3.3,1.6-4.4c1.1-1.1,2.4-1.6,3.9-1.6c1.6,0,2.9,0.5,3.8,1.4
						c0.9,1,1.3,2.3,1.3,3.9V19.1z M149.5,17c0-1.6-0.6-2.4-1.9-2.4c-0.5,0-1,0.2-1.4,0.7c-0.4,0.5-0.6,1-0.7,1.7H149.5z"/>
					<path class="st0" d="M164.7,23.7h-3.4v-6.2c0-1.7-0.6-2.6-1.8-2.6c-0.6,0-1.1,0.2-1.5,0.7c-0.4,0.5-0.6,1-0.6,1.7v6.3H154V12.6
						h3.4v1.8h0c0.8-1.4,2-2,3.6-2c2.5,0,3.7,1.5,3.7,4.6V23.7z"/>
					<path class="st0" d="M166,23.4v-2.8c0.6,0.3,1.1,0.6,1.7,0.8c0.6,0.2,1.1,0.2,1.6,0.2c0.6,0,1.1-0.1,1.4-0.2
						c0.4-0.2,0.5-0.4,0.5-0.8c0-0.2-0.1-0.4-0.2-0.5s-0.4-0.3-0.6-0.4c-0.2-0.1-0.5-0.2-0.8-0.3c-0.3-0.1-0.6-0.2-0.9-0.3
						c-0.4-0.2-0.8-0.3-1.2-0.5c-0.3-0.2-0.6-0.4-0.8-0.7c-0.2-0.3-0.4-0.5-0.5-0.9c-0.1-0.3-0.2-0.7-0.2-1.2c0-0.6,0.1-1.2,0.4-1.6
						c0.3-0.4,0.6-0.8,1.1-1.1c0.5-0.3,1-0.5,1.5-0.6c0.6-0.1,1.2-0.2,1.8-0.2c0.5,0,1,0,1.5,0.1c0.5,0.1,1,0.2,1.5,0.3v2.6
						c-0.4-0.3-0.9-0.4-1.4-0.6c-0.5-0.1-1-0.2-1.5-0.2c-0.2,0-0.4,0-0.6,0.1c-0.2,0-0.4,0.1-0.5,0.2c-0.2,0.1-0.3,0.2-0.4,0.3
						c-0.1,0.1-0.1,0.3-0.1,0.4c0,0.2,0.1,0.4,0.2,0.5c0.1,0.1,0.3,0.3,0.5,0.4c0.2,0.1,0.4,0.2,0.7,0.3c0.3,0.1,0.5,0.2,0.8,0.3
						c0.5,0.2,0.9,0.3,1.2,0.5c0.4,0.2,0.7,0.4,0.9,0.7c0.3,0.3,0.5,0.5,0.6,0.9c0.1,0.3,0.2,0.7,0.2,1.2c0,0.7-0.1,1.2-0.4,1.7
						c-0.3,0.5-0.7,0.8-1.1,1.1c-0.5,0.3-1,0.5-1.6,0.6c-0.6,0.1-1.3,0.2-1.9,0.2C168.2,23.9,167.1,23.7,166,23.4z"/>
					<path class="st0" d="M185.8,19.1h-7.2c0.1,1.6,1.1,2.4,3,2.4c1.2,0,2.3-0.3,3.2-0.9v2.5c-1,0.5-2.4,0.8-4,0.8
						c-1.8,0-3.2-0.5-4.2-1.5c-1-1-1.5-2.4-1.5-4.2c0-1.8,0.5-3.3,1.6-4.4c1.1-1.1,2.4-1.6,3.9-1.6c1.6,0,2.9,0.5,3.8,1.4
						c0.9,1,1.3,2.3,1.3,3.9V19.1z M182.7,17c0-1.6-0.6-2.4-1.9-2.4c-0.5,0-1,0.2-1.4,0.7c-0.4,0.5-0.6,1-0.7,1.7H182.7z"/>
					<path class="st0" d="M186.5,23.4v-2.8c0.6,0.3,1.1,0.6,1.7,0.8c0.6,0.2,1.1,0.2,1.6,0.2c0.6,0,1.1-0.1,1.4-0.2
						c0.4-0.2,0.5-0.4,0.5-0.8c0-0.2-0.1-0.4-0.2-0.5s-0.4-0.3-0.6-0.4c-0.2-0.1-0.5-0.2-0.8-0.3c-0.3-0.1-0.6-0.2-0.9-0.3
						c-0.4-0.2-0.8-0.3-1.2-0.5c-0.3-0.2-0.6-0.4-0.8-0.7c-0.2-0.3-0.4-0.5-0.5-0.9c-0.1-0.3-0.2-0.7-0.2-1.2c0-0.6,0.1-1.2,0.4-1.6
						c0.3-0.4,0.6-0.8,1.1-1.1c0.5-0.3,1-0.5,1.5-0.6c0.6-0.1,1.2-0.2,1.8-0.2c0.5,0,1,0,1.5,0.1c0.5,0.1,1,0.2,1.5,0.3v2.6
						c-0.4-0.3-0.9-0.4-1.4-0.6c-0.5-0.1-1-0.2-1.5-0.2c-0.2,0-0.4,0-0.6,0.1c-0.2,0-0.4,0.1-0.5,0.2c-0.2,0.1-0.3,0.2-0.4,0.3
						c-0.1,0.1-0.1,0.3-0.1,0.4c0,0.2,0.1,0.4,0.2,0.5s0.3,0.3,0.5,0.4c0.2,0.1,0.4,0.2,0.7,0.3c0.3,0.1,0.5,0.2,0.8,0.3
						c0.5,0.2,0.9,0.3,1.2,0.5c0.4,0.2,0.7,0.4,0.9,0.7c0.3,0.3,0.5,0.5,0.6,0.9c0.1,0.3,0.2,0.7,0.2,1.2c0,0.7-0.1,1.2-0.4,1.7
						c-0.3,0.5-0.7,0.8-1.1,1.1c-0.5,0.3-1,0.5-1.6,0.6c-0.6,0.1-1.3,0.2-1.9,0.2C188.7,23.9,187.5,23.7,186.5,23.4z"/>
				</g>
			</g>
			<g>
				<path class="st0" d="M157.2,35.8c-1,0-1.7-0.3-2.3-0.9c-0.6-0.6-0.9-1.5-0.9-2.5c0-1.1,0.3-2,0.9-2.6c0.6-0.6,1.4-1,2.4-1
					c0.9,0,1.7,0.3,2.3,0.9c0.6,0.6,0.9,1.4,0.9,2.5c0,1.1-0.3,2-0.9,2.6C158.9,35.5,158.1,35.8,157.2,35.8z M157.2,29.5
					c-0.7,0-1.3,0.3-1.7,0.8c-0.4,0.5-0.7,1.2-0.7,2c0,0.8,0.2,1.5,0.6,2c0.4,0.5,1,0.8,1.7,0.8c0.7,0,1.3-0.2,1.8-0.7
					c0.4-0.5,0.6-1.2,0.6-2c0-0.9-0.2-1.6-0.6-2.1S157.9,29.5,157.2,29.5z"/>
				<path class="st0" d="M165.3,35.7h-0.8v-2.7c0-1-0.4-1.5-1.1-1.5c-0.4,0-0.7,0.1-1,0.4s-0.4,0.7-0.4,1.1v2.7h-0.8v-4.8h0.8v0.8h0
					c0.4-0.6,0.9-0.9,1.6-0.9c0.5,0,0.9,0.2,1.2,0.5c0.3,0.3,0.4,0.8,0.4,1.5V35.7z"/>
				<path class="st0" d="M167.3,35.7h-0.8v-7.1h0.8V35.7z"/>
				<path class="st0" d="M168.9,29.6c-0.1,0-0.3,0-0.4-0.1c-0.1-0.1-0.1-0.2-0.1-0.4c0-0.1,0-0.3,0.1-0.4c0.1-0.1,0.2-0.1,0.4-0.1
					c0.1,0,0.3,0,0.4,0.1c0.1,0.1,0.1,0.2,0.1,0.4c0,0.1,0,0.3-0.1,0.4C169.2,29.6,169.1,29.6,168.9,29.6z M169.3,35.7h-0.8v-4.8
					h0.8V35.7z"/>
				<path class="st0" d="M174.6,35.7h-0.8v-2.7c0-1-0.4-1.5-1.1-1.5c-0.4,0-0.7,0.1-1,0.4s-0.4,0.7-0.4,1.1v2.7h-0.8v-4.8h0.8v0.8h0
					c0.4-0.6,0.9-0.9,1.6-0.9c0.5,0,0.9,0.2,1.2,0.5c0.3,0.3,0.4,0.8,0.4,1.5V35.7z"/>
				<path class="st0" d="M179.6,33.4h-3.4c0,0.5,0.2,1,0.4,1.2c0.3,0.3,0.7,0.4,1.1,0.4c0.5,0,1-0.2,1.5-0.5v0.7
					c-0.4,0.3-1,0.5-1.7,0.5c-0.7,0-1.2-0.2-1.6-0.7c-0.4-0.4-0.6-1.1-0.6-1.8c0-0.7,0.2-1.4,0.6-1.8c0.4-0.5,1-0.7,1.6-0.7
					c0.6,0,1.1,0.2,1.5,0.6s0.5,1,0.5,1.7V33.4z M178.8,32.8c0-0.4-0.1-0.8-0.3-1c-0.2-0.2-0.5-0.4-0.9-0.4c-0.4,0-0.7,0.1-0.9,0.4
					c-0.3,0.3-0.4,0.6-0.5,1H178.8z"/>
				<path class="st0" d="M180.8,35.8c-0.1,0-0.3-0.1-0.4-0.2c-0.1-0.1-0.2-0.2-0.2-0.4s0.1-0.3,0.2-0.4c0.1-0.1,0.2-0.2,0.4-0.2
					c0.1,0,0.3,0.1,0.4,0.2c0.1,0.1,0.2,0.2,0.2,0.4s-0.1,0.3-0.2,0.4C181,35.7,180.9,35.8,180.8,35.8z"/>
				<path class="st0" d="M184.3,35.8c-0.7,0-1.3-0.2-1.7-0.7c-0.4-0.4-0.6-1-0.6-1.8c0-0.8,0.2-1.4,0.7-1.9c0.4-0.5,1-0.7,1.8-0.7
					c0.7,0,1.3,0.2,1.7,0.7c0.4,0.4,0.6,1.1,0.6,1.8c0,0.8-0.2,1.4-0.7,1.8C185.6,35.5,185,35.8,184.3,35.8z M184.4,31.4
					c-0.5,0-0.9,0.2-1.2,0.5c-0.3,0.3-0.4,0.8-0.4,1.4c0,0.6,0.1,1,0.4,1.4c0.3,0.3,0.7,0.5,1.2,0.5c0.5,0,0.9-0.2,1.2-0.5
					c0.3-0.3,0.4-0.8,0.4-1.4c0-0.6-0.1-1.1-0.4-1.4C185.2,31.5,184.9,31.4,184.4,31.4z"/>
				<path class="st0" d="M190.2,31.6c-0.1-0.1-0.3-0.2-0.6-0.2c-0.3,0-0.6,0.2-0.8,0.5s-0.3,0.7-0.3,1.3v2.5h-0.8v-4.8h0.8v1h0
					c0.1-0.3,0.3-0.6,0.5-0.8c0.2-0.2,0.5-0.3,0.8-0.3c0.2,0,0.4,0,0.5,0.1V31.6z"/>
				<path class="st0" d="M194.8,35.3c0,1.8-0.8,2.7-2.5,2.7c-0.6,0-1.1-0.1-1.6-0.3v-0.8c0.5,0.3,1.1,0.5,1.6,0.5
					c1.2,0,1.8-0.6,1.8-1.9v-0.5h0c-0.4,0.6-0.9,0.9-1.7,0.9c-0.6,0-1.1-0.2-1.4-0.6c-0.4-0.4-0.5-1-0.5-1.7c0-0.8,0.2-1.5,0.6-2
					c0.4-0.5,0.9-0.7,1.6-0.7c0.6,0,1.1,0.3,1.4,0.8h0v-0.7h0.8V35.3z M194.1,33.5v-0.7c0-0.4-0.1-0.7-0.4-1c-0.3-0.3-0.6-0.4-1-0.4
					c-0.5,0-0.9,0.2-1.1,0.5c-0.3,0.3-0.4,0.8-0.4,1.5c0,0.5,0.1,1,0.4,1.3c0.3,0.3,0.6,0.5,1,0.5c0.4,0,0.8-0.2,1.1-0.5
					C193.9,34.4,194.1,34,194.1,33.5z"/>
			</g>
		</g>
	</g>
</g>
</svg>
