<?xml version="1.0" encoding="utf-8"?>
<!-- Generator: Adobe Illustrator 21.1.0, SVG Export Plug-In . SVG Version: 6.00 Build 0)  -->
<svg version="1.1" id="Layer_1" xmlns="http://www.w3.org/2000/svg" xmlns:xlink="http://www.w3.org/1999/xlink" x="0px" y="0px"
	 viewBox="0 0 200 40" style="enable-background:new 0 0 200 40;" xml:space="preserve">
<style type="text/css">
	.st0{fill:#002F47;}
	.st1{fill-rule:evenodd;clip-rule:evenodd;fill:#002F47;}
	.st2{fill-rule:evenodd;clip-rule:evenodd;fill:#6E97A7;}
	.st3{fill:#6E97A7;}
	.st4{fill:#6F96A7;}
	.st5{fill:none;}
	.st6{fill:url(#SVGID_1_);}
	.st7{fill-rule:evenodd;clip-rule:evenodd;fill:#6F96A7;}
</style>
<g>
	<g>
		<g>
			<path class="st0" d="M53.5,23.6c-1.2,0.7-2.8,1.1-4.6,1.1c-2,0-3.6-0.6-4.8-1.7c-1.2-1.1-1.8-2.7-1.8-4.6c0-2,0.6-3.6,1.9-4.9
				c1.3-1.3,3-1.9,5.1-1.9c1.3,0,2.5,0.2,3.5,0.6v2.7c-1-0.6-2.2-0.8-3.6-0.8c-1.2,0-2.1,0.4-2.9,1.1c-0.7,0.8-1.1,1.8-1.1,3.1
				c0,1.3,0.3,2.3,1,3c0.7,0.7,1.6,1.1,2.7,1.1c0.7,0,1.2-0.1,1.6-0.3v-2.5h-2.5v-2.3h5.4V23.6z"/>
			<path class="st0" d="M63.3,20.7h-5.9c0.1,1.3,0.9,2,2.5,2c1,0,1.9-0.2,2.6-0.7v2c-0.8,0.4-1.9,0.7-3.3,0.7
				c-1.5,0-2.6-0.4-3.4-1.2c-0.8-0.8-1.2-1.9-1.2-3.4c0-1.5,0.4-2.7,1.3-3.6c0.9-0.9,1.9-1.3,3.2-1.3c1.3,0,2.3,0.4,3.1,1.2
				c0.7,0.8,1.1,1.8,1.1,3.2V20.7z M60.7,19c0-1.3-0.5-1.9-1.6-1.9c-0.4,0-0.8,0.2-1.2,0.6c-0.3,0.4-0.5,0.8-0.6,1.4H60.7z"/>
			<path class="st0" d="M69.8,24.3c-0.4,0.2-1,0.3-1.9,0.3c-2,0-2.9-1-2.9-3.1v-4.1h-1.5v-2.1H65v-1.9l2.8-0.8v2.7h2v2.1h-2v3.6
				c0,0.9,0.4,1.4,1.1,1.4c0.3,0,0.6-0.1,0.9-0.3V24.3z"/>
			<path class="st0" d="M75.6,24.4V11.8H80c4.5,0,6.7,2.1,6.7,6.2c0,2-0.6,3.5-1.8,4.7c-1.2,1.2-2.9,1.8-4.9,1.8H75.6z M78.4,14.1v8
				h1.4c1.2,0,2.2-0.4,2.9-1.1c0.7-0.7,1.1-1.7,1.1-3c0-1.2-0.3-2.2-1-2.8c-0.7-0.7-1.7-1-2.9-1H78.4z"/>
			<path class="st0" d="M93.9,17.9c-0.3-0.2-0.7-0.3-1.2-0.3c-0.6,0-1.1,0.2-1.4,0.7c-0.3,0.4-0.5,1-0.5,1.8v4.3h-2.8v-9h2.8v1.7h0
				c0.4-1.2,1.2-1.8,2.4-1.8c0.3,0,0.5,0,0.7,0.1V17.9z"/>
			<path class="st0" d="M96.2,14c-0.5,0-0.9-0.1-1.2-0.4c-0.3-0.3-0.4-0.6-0.4-1c0-0.4,0.1-0.8,0.4-1c0.3-0.3,0.7-0.4,1.2-0.4
				c0.5,0,0.9,0.1,1.2,0.4c0.3,0.3,0.4,0.6,0.4,1c0,0.4-0.1,0.8-0.4,1C97,13.9,96.6,14,96.2,14z M97.5,24.4h-2.8v-9h2.8V24.4z"/>
			<path class="st0" d="M107.9,15.4l-3.4,9h-3.2l-3.2-9h3l1.6,5.6c0.2,0.6,0.3,1.2,0.3,1.6h0c0-0.4,0.1-0.9,0.3-1.6l1.6-5.6H107.9z"
				/>
			<path class="st0" d="M116.5,20.7h-5.9c0.1,1.3,0.9,2,2.5,2c1,0,1.9-0.2,2.6-0.7v2c-0.8,0.4-1.9,0.7-3.3,0.7
				c-1.5,0-2.6-0.4-3.4-1.2c-0.8-0.8-1.2-1.9-1.2-3.4c0-1.5,0.4-2.7,1.3-3.6c0.9-0.9,1.9-1.3,3.2-1.3c1.3,0,2.3,0.4,3.1,1.2
				c0.7,0.8,1.1,1.8,1.1,3.2V20.7z M113.9,19c0-1.3-0.5-1.9-1.6-1.9c-0.4,0-0.8,0.2-1.2,0.6c-0.3,0.4-0.5,0.8-0.6,1.4H113.9z"/>
			<path class="st0" d="M123.5,17.9c-0.3-0.2-0.7-0.3-1.2-0.3c-0.6,0-1.1,0.2-1.4,0.7c-0.3,0.4-0.5,1-0.5,1.8v4.3h-2.8v-9h2.8v1.7h0
				c0.4-1.2,1.2-1.8,2.4-1.8c0.3,0,0.5,0,0.7,0.1V17.9z"/>
			<path class="st0" d="M123.8,24.2V22c0.5,0.3,0.9,0.5,1.4,0.6c0.5,0.1,0.9,0.2,1.3,0.2c0.5,0,0.9-0.1,1.2-0.2
				c0.3-0.1,0.4-0.3,0.4-0.6c0-0.2-0.1-0.3-0.2-0.4c-0.1-0.1-0.3-0.2-0.5-0.3c-0.2-0.1-0.4-0.2-0.7-0.2c-0.2-0.1-0.5-0.1-0.7-0.2
				c-0.4-0.1-0.7-0.3-0.9-0.4c-0.3-0.2-0.5-0.3-0.7-0.5c-0.2-0.2-0.3-0.4-0.4-0.7c-0.1-0.3-0.1-0.6-0.1-1c0-0.5,0.1-0.9,0.3-1.3
				c0.2-0.4,0.5-0.7,0.9-0.9c0.4-0.2,0.8-0.4,1.3-0.5c0.5-0.1,1-0.2,1.5-0.2c0.4,0,0.8,0,1.2,0.1c0.4,0.1,0.8,0.2,1.2,0.3v2.1
				c-0.4-0.2-0.7-0.4-1.1-0.5c-0.4-0.1-0.8-0.2-1.2-0.2c-0.2,0-0.4,0-0.5,0c-0.2,0-0.3,0.1-0.4,0.1s-0.2,0.1-0.3,0.2
				c-0.1,0.1-0.1,0.2-0.1,0.3c0,0.2,0.1,0.3,0.2,0.4c0.1,0.1,0.2,0.2,0.4,0.3c0.2,0.1,0.4,0.2,0.6,0.2c0.2,0.1,0.4,0.1,0.6,0.2
				c0.4,0.1,0.7,0.3,1,0.4c0.3,0.2,0.6,0.3,0.8,0.5c0.2,0.2,0.4,0.4,0.5,0.7c0.1,0.3,0.2,0.6,0.2,1c0,0.5-0.1,1-0.3,1.4
				c-0.2,0.4-0.5,0.7-0.9,0.9c-0.4,0.2-0.8,0.4-1.3,0.5c-0.5,0.1-1,0.2-1.6,0.2C125.5,24.7,124.6,24.5,123.8,24.2z"/>
			<path class="st0" d="M136.7,20.6h-4.8v-1.9h4.8V20.6z"/>
			<path class="st0" d="M146.3,24.4h-7.5V11.8h2.8v10.3h4.7V24.4z"/>
			<path class="st0" d="M148.6,14c-0.5,0-0.9-0.1-1.2-0.4c-0.3-0.3-0.4-0.6-0.4-1c0-0.4,0.1-0.8,0.4-1c0.3-0.3,0.7-0.4,1.2-0.4
				c0.5,0,0.9,0.1,1.2,0.4c0.3,0.3,0.4,0.6,0.4,1c0,0.4-0.1,0.8-0.4,1C149.5,13.9,149.1,14,148.6,14z M150,24.4h-2.8v-9h2.8V24.4z"
				/>
			<path class="st0" d="M158.6,24.1c-0.6,0.4-1.5,0.5-2.7,0.5c-1.4,0-2.5-0.4-3.4-1.3c-0.9-0.8-1.3-1.9-1.3-3.3
				c0-1.5,0.5-2.7,1.4-3.6c0.9-0.9,2.1-1.3,3.7-1.3c1.1,0,1.8,0.1,2.3,0.4V18c-0.6-0.4-1.2-0.7-1.9-0.7c-0.8,0-1.4,0.2-1.9,0.7
				c-0.5,0.5-0.7,1.1-0.7,1.9c0,0.8,0.2,1.4,0.7,1.9c0.4,0.5,1.1,0.7,1.8,0.7c0.7,0,1.4-0.2,2-0.7V24.1z"/>
			<path class="st0" d="M168,20.7h-5.9c0.1,1.3,0.9,2,2.5,2c1,0,1.9-0.2,2.6-0.7v2c-0.8,0.4-1.9,0.7-3.3,0.7c-1.5,0-2.6-0.4-3.4-1.2
				c-0.8-0.8-1.2-1.9-1.2-3.4c0-1.5,0.4-2.7,1.3-3.6c0.9-0.9,1.9-1.3,3.2-1.3c1.3,0,2.3,0.4,3.1,1.2c0.7,0.8,1.1,1.8,1.1,3.2V20.7z
				 M165.4,19c0-1.3-0.5-1.9-1.6-1.9c-0.4,0-0.8,0.2-1.2,0.6c-0.3,0.4-0.5,0.8-0.6,1.4H165.4z"/>
			<path class="st0" d="M177.8,24.4h-2.8v-5c0-1.4-0.5-2.1-1.5-2.1c-0.5,0-0.9,0.2-1.2,0.6c-0.3,0.4-0.5,0.8-0.5,1.4v5.1h-2.8v-9
				h2.8v1.4h0c0.7-1.1,1.6-1.6,2.9-1.6c2,0,3,1.2,3,3.7V24.4z"/>
			<path class="st0" d="M178.9,24.2V22c0.5,0.3,0.9,0.5,1.4,0.6c0.5,0.1,0.9,0.2,1.3,0.2c0.5,0,0.9-0.1,1.2-0.2
				c0.3-0.1,0.4-0.3,0.4-0.6c0-0.2-0.1-0.3-0.2-0.4c-0.1-0.1-0.3-0.2-0.5-0.3c-0.2-0.1-0.4-0.2-0.7-0.2c-0.2-0.1-0.5-0.1-0.7-0.2
				c-0.4-0.1-0.7-0.3-0.9-0.4c-0.3-0.2-0.5-0.3-0.7-0.5c-0.2-0.2-0.3-0.4-0.4-0.7c-0.1-0.3-0.1-0.6-0.1-1c0-0.5,0.1-0.9,0.3-1.3
				c0.2-0.4,0.5-0.7,0.9-0.9c0.4-0.2,0.8-0.4,1.3-0.5c0.5-0.1,1-0.2,1.5-0.2c0.4,0,0.8,0,1.2,0.1c0.4,0.1,0.8,0.2,1.2,0.3v2.1
				c-0.4-0.2-0.7-0.4-1.1-0.5c-0.4-0.1-0.8-0.2-1.2-0.2c-0.2,0-0.4,0-0.5,0c-0.2,0-0.3,0.1-0.4,0.1s-0.2,0.1-0.3,0.2
				c-0.1,0.1-0.1,0.2-0.1,0.3c0,0.2,0.1,0.3,0.2,0.4c0.1,0.1,0.2,0.2,0.4,0.3c0.2,0.1,0.4,0.2,0.6,0.2c0.2,0.1,0.4,0.1,0.6,0.2
				c0.4,0.1,0.7,0.3,1,0.4c0.3,0.2,0.6,0.3,0.8,0.5c0.2,0.2,0.4,0.4,0.5,0.7c0.1,0.3,0.2,0.6,0.2,1c0,0.5-0.1,1-0.3,1.4
				c-0.2,0.4-0.5,0.7-0.9,0.9c-0.4,0.2-0.8,0.4-1.3,0.5c-0.5,0.1-1,0.2-1.6,0.2C180.7,24.7,179.7,24.5,178.9,24.2z"/>
			<path class="st0" d="M195,20.7h-5.9c0.1,1.3,0.9,2,2.5,2c1,0,1.9-0.2,2.6-0.7v2c-0.8,0.4-1.9,0.7-3.3,0.7c-1.5,0-2.6-0.4-3.4-1.2
				c-0.8-0.8-1.2-1.9-1.2-3.4c0-1.5,0.4-2.7,1.3-3.6c0.9-0.9,1.9-1.3,3.2-1.3c1.3,0,2.3,0.4,3.1,1.2c0.7,0.8,1.1,1.8,1.1,3.2V20.7z
				 M192.4,19c0-1.3-0.5-1.9-1.6-1.9c-0.4,0-0.8,0.2-1.2,0.6c-0.3,0.4-0.5,0.8-0.6,1.4H192.4z"/>
		</g>
	</g>
	<g>
		<path class="st0" d="M30.2,29.1c1.9-3.2,1.9-8.4-0.4-11.4C24.1,10.2,9.2,14.9,5.4,4.8c0.9,1.3,2.8,2.3,4.4,2.9
			c2.9-2.9,6.9-4.6,11.3-4.6c8.9,0,16.1,7.2,16.1,16.1S30,35.3,21.1,35.3c-2.7,0-5.3-0.7-7.5-1.9C19.5,34.6,26.9,34.7,30.2,29.1z"/>
		<path class="st3" d="M6.9,11.5c1.8,2.4,4.8,4,8.2,4.8c3.8,1,10.1,0.9,11.1,5.7c-3.8-6.2-15.8,0.5-18.5-6.4c0,2.8,1.8,5,4.3,6.3
			c2.8,1.4,8.6,0.6,10.4,2.6c1.6,1.7,1.4,4.4-0.1,5.6c-0.6,0.5-1.3,0.9-2.1,1.2C14.8,33.5,8.7,31,6.4,25.7c-0.9-2-1.4-4.2-1.4-6.5
			C5,16.4,5.7,13.8,6.9,11.5z"/>
	</g>
	<g>
		<path class="st3" d="M180.4,34.9c-0.2,0-0.4-0.1-0.6-0.2c-0.2-0.1-0.2-0.3-0.2-0.5c0-0.2,0.1-0.4,0.2-0.5c0.2-0.1,0.4-0.2,0.6-0.2
			c0.2,0,0.4,0.1,0.6,0.2c0.2,0.1,0.2,0.3,0.2,0.5c0,0.2-0.1,0.4-0.2,0.5C180.8,34.9,180.6,34.9,180.4,34.9z"/>
		<path class="st3" d="M184.1,34.9c-0.8,0-1.3-0.2-1.8-0.6c-0.4-0.4-0.6-1-0.6-1.7c0-0.7,0.2-1.3,0.7-1.7c0.4-0.4,1-0.6,1.8-0.6
			c0.7,0,1.3,0.2,1.8,0.6c0.4,0.4,0.6,1,0.6,1.7c0,0.7-0.2,1.3-0.7,1.8C185.4,34.7,184.8,34.9,184.1,34.9z M184.1,31.3
			c-0.3,0-0.6,0.1-0.8,0.3c-0.2,0.2-0.3,0.5-0.3,1c0,0.9,0.3,1.3,1,1.3c0.7,0,1-0.4,1-1.3C185.1,31.7,184.8,31.3,184.1,31.3z"/>
		<path class="st3" d="M190.1,31.6c-0.2-0.1-0.4-0.1-0.6-0.1c-0.3,0-0.5,0.1-0.7,0.3c-0.2,0.2-0.3,0.5-0.3,0.9v2.2h-1.4v-4.5h1.4
			v0.8h0c0.2-0.6,0.6-0.9,1.2-0.9c0.1,0,0.3,0,0.3,0.1V31.6z"/>
		<path class="st3" d="M194.8,34.3c0,0.8-0.2,1.5-0.7,1.9c-0.5,0.5-1.2,0.7-2.1,0.7c-0.6,0-1.1-0.1-1.4-0.3v-1.2
			c0.5,0.3,0.9,0.4,1.4,0.4c0.5,0,0.8-0.1,1.1-0.4c0.3-0.2,0.4-0.6,0.4-1v-0.4h0c-0.3,0.5-0.8,0.8-1.4,0.8c-0.6,0-1-0.2-1.4-0.6
			s-0.5-0.9-0.5-1.6c0-0.8,0.2-1.4,0.6-1.8c0.4-0.4,0.9-0.7,1.5-0.7c0.5,0,1,0.2,1.2,0.6h0v-0.5h1.4V34.3z M193.5,32.6v-0.4
			c0-0.3-0.1-0.5-0.3-0.7c-0.2-0.2-0.4-0.3-0.7-0.3c-0.3,0-0.5,0.1-0.7,0.4c-0.2,0.2-0.3,0.6-0.3,1c0,0.4,0.1,0.7,0.3,0.9
			c0.2,0.2,0.4,0.3,0.7,0.3c0.3,0,0.5-0.1,0.7-0.3C193.4,33.3,193.5,33,193.5,32.6z"/>
	</g>
</g>
</svg>
