<?xml version="1.0" encoding="utf-8"?>
<!-- Generator: Adobe Illustrator 21.1.0, SVG Export Plug-In . SVG Version: 6.00 Build 0)  -->
<svg version="1.1" id="Layer_1" xmlns="http://www.w3.org/2000/svg" xmlns:xlink="http://www.w3.org/1999/xlink" x="0px" y="0px"
	 viewBox="0 0 200 40" style="enable-background:new 0 0 200 40;" xml:space="preserve">
<style type="text/css">
	.st0{fill:#002F47;}
	.st1{fill-rule:evenodd;clip-rule:evenodd;fill:#002F47;}
	.st2{fill-rule:evenodd;clip-rule:evenodd;fill:#6E97A7;}
	.st3{fill:#6E97A7;}
	.st4{fill:#6F96A7;}
	.st5{fill:none;}
	.st6{fill:url(#SVGID_1_);}
	.st7{fill-rule:evenodd;clip-rule:evenodd;fill:#6F96A7;}
</style>
<g>
	<g>
		<path class="st0" d="M67.1,23.8c-0.5,0.2-1.1,0.3-1.8,0.4c-0.7,0.1-1.4,0.2-2.1,0.2c-0.5,0-1,0-1.4-0.1c-0.4,0-0.8-0.1-1.3-0.2
			c-0.4-0.1-0.8-0.3-1.1-0.5c-0.3-0.2-0.5-0.5-0.7-0.8c-0.2-0.3-0.3-0.7-0.3-1.2v-3.9c0-0.5,0.1-0.9,0.3-1.3
			c0.2-0.4,0.5-0.7,0.8-0.9c0.3-0.2,0.7-0.4,1.1-0.5c0.4-0.1,0.8-0.2,1.2-0.3c0.4,0,0.8-0.1,1.3-0.1c1.3,0,2.6,0.1,3.8,0.3v1.7
			c-1.1-0.3-2.4-0.4-3.8-0.4c-1.6,0-2.4,0.5-2.4,1.4v3.8c0,0.5,0.2,0.8,0.7,1c0.5,0.2,1.1,0.3,2,0.3c0.5,0,1-0.1,1.5-0.2v-2.2h-1.5
			v-1.5h3.7V23.8z"/>
		<path class="st0" d="M74.8,21.3h-4.5V22c0,0.4,0.1,0.7,0.4,0.9c0.3,0.2,0.8,0.3,1.6,0.3c0.7,0,1.5-0.1,2.3-0.3v1.3
			c-0.9,0.2-1.8,0.3-2.7,0.3c-2.5,0-3.7-0.8-3.7-2.3v-2.5c0-0.9,0.3-1.5,0.9-1.9c0.6-0.4,1.4-0.6,2.6-0.6c1.1,0,1.9,0.2,2.4,0.5
			c0.5,0.4,0.8,1,0.8,1.9V21.3z M72.8,20.1v-1c0-0.2-0.1-0.4-0.3-0.5c-0.2-0.1-0.5-0.2-1-0.2c-0.5,0-0.9,0.1-1,0.2
			c-0.2,0.1-0.3,0.3-0.3,0.5v1H72.8z"/>
		<path class="st0" d="M80.7,24.3c-0.4,0-0.8,0.1-1.2,0.1c-0.3,0-0.6,0-0.9,0c-0.2,0-0.5-0.1-0.8-0.2c-0.3-0.1-0.5-0.2-0.6-0.4
			c-0.2-0.1-0.3-0.4-0.4-0.6c-0.1-0.3-0.2-0.6-0.2-1v-3.6h-1.4v-1.3h1.4v-2h2.1v2h1.9v1.3h-1.9v3.3c0,0.5,0.1,0.8,0.2,1
			c0.1,0.2,0.5,0.3,1,0.3c0.2,0,0.4,0,0.8-0.1V24.3z"/>
		<path class="st4" d="M90.6,24.1c-1.1,0.2-2.1,0.3-3,0.3c-0.4,0-0.7,0-1.1-0.1c-0.3,0-0.7-0.1-1.1-0.2c-0.4-0.1-0.8-0.3-1.1-0.4
			c-0.3-0.2-0.5-0.5-0.7-0.8c-0.2-0.3-0.3-0.7-0.3-1.2v-4.1c0-1.9,1.4-2.8,4.3-2.8c0.7,0,1.7,0.1,3,0.3v1.7
			c-1.1-0.3-2.1-0.4-2.9-0.4c-0.3,0-0.6,0-0.8,0c-0.2,0-0.4,0.1-0.6,0.1c-0.2,0.1-0.4,0.2-0.5,0.4c-0.1,0.2-0.2,0.4-0.2,0.7v4
			c0,0.8,0.8,1.3,2.3,1.3c0.7,0,1.6-0.1,2.8-0.4V24.1z"/>
		<path class="st4" d="M97.8,24.3h-2.1v-0.6c-0.2,0.3-0.4,0.5-0.7,0.6c-0.3,0.1-0.8,0.2-1.6,0.2c-0.9,0-1.6-0.1-1.9-0.4
			c-0.3-0.3-0.5-0.9-0.5-1.8c0-0.8,0.2-1.4,0.5-1.7c0.3-0.3,0.9-0.5,1.7-0.5h2.4v-0.5c0-0.4-0.1-0.7-0.3-0.8
			c-0.2-0.1-0.6-0.2-1.2-0.2c-0.6,0-1.4,0.1-2.5,0.2v-1.3c0.8-0.1,1.7-0.1,2.7-0.1c1.3,0,2.2,0.2,2.7,0.5c0.5,0.3,0.8,0.9,0.8,1.9
			V24.3z M95.7,22.5v-1.4h-1.4c-0.5,0-0.8,0.1-0.9,0.2c-0.1,0.1-0.2,0.4-0.2,0.9c0,0.5,0.1,0.7,0.2,0.8c0.1,0.1,0.4,0.1,0.9,0.1
			c0.2,0,0.4,0,0.5,0c0.1,0,0.2,0,0.4,0c0.1,0,0.2-0.1,0.3-0.1c0.1,0,0.1-0.1,0.1-0.2C95.7,22.7,95.7,22.6,95.7,22.5z"/>
		<path class="st4" d="M103.8,18.9H103c-0.6,0-1,0.1-1.3,0.3c-0.3,0.2-0.4,0.5-0.4,0.9v4.2h-2.1v-7h2v1.2c0-0.3,0.2-0.7,0.6-0.9
			c0.4-0.3,0.8-0.4,1.2-0.4h0.7V18.9z"/>
		<path class="st4" d="M114.8,24.3h-2.6l-2.5-3.7h-1v3.7h-2.3v-9.4h4.2c1.2,0,2.1,0.1,2.7,0.4c0.6,0.3,0.9,0.8,0.9,1.5v1.6
			c0,0.6-0.2,1-0.6,1.3c-0.4,0.3-0.9,0.5-1.5,0.6L114.8,24.3z M112,18.1v-0.7c0-0.3-0.1-0.6-0.3-0.7c-0.2-0.1-0.6-0.2-1.1-0.2h-1.9
			v2.6h1.9c0.5,0,0.9-0.1,1.1-0.2C111.9,18.8,112,18.5,112,18.1z"/>
		<path class="st4" d="M122,21.3h-4.5V22c0,0.4,0.1,0.7,0.4,0.9c0.3,0.2,0.8,0.3,1.6,0.3c0.7,0,1.5-0.1,2.3-0.3v1.3
			c-0.9,0.2-1.8,0.3-2.7,0.3c-2.5,0-3.7-0.8-3.7-2.3v-2.5c0-0.9,0.3-1.5,0.9-1.9c0.6-0.4,1.4-0.6,2.6-0.6c1.1,0,1.9,0.2,2.4,0.5
			c0.5,0.4,0.8,1,0.8,1.9V21.3z M120,20.1v-1c0-0.2-0.1-0.4-0.3-0.5c-0.2-0.1-0.5-0.2-1-0.2c-0.5,0-0.9,0.1-1,0.2
			c-0.2,0.1-0.3,0.3-0.3,0.5v1H120z"/>
		<path class="st4" d="M130.1,17.3v7.4c0,1-0.3,1.7-1,2.2c-0.7,0.4-1.7,0.6-3.1,0.6c-1.1,0-1.9,0-2.5-0.1v-1.4
			c0.9,0.1,1.8,0.2,2.5,0.2c0.7,0,1.2-0.1,1.5-0.3c0.3-0.2,0.5-0.6,0.5-1.2v-1.1c-0.2,0.4-0.5,0.6-0.8,0.7c-0.3,0.1-0.8,0.2-1.5,0.2
			c-1,0-1.7-0.1-2.1-0.4c-0.4-0.3-0.6-0.9-0.6-1.7v-2.7c0-0.9,0.2-1.6,0.6-1.9c0.4-0.3,1.2-0.5,2.3-0.5c0.5,0,0.9,0,1.2,0.1
			c0.3,0.1,0.5,0.2,0.6,0.3c0.1,0.1,0.3,0.3,0.4,0.6v-0.8H130.1z M128,22.2v-2.8c0-0.4-0.1-0.6-0.3-0.7c-0.2-0.1-0.6-0.2-1.3-0.2
			c-0.6,0-0.9,0.1-1.1,0.2c-0.2,0.1-0.2,0.4-0.2,0.8v2.7c0,0.4,0.1,0.7,0.2,0.8c0.2,0.1,0.6,0.2,1.2,0.2c0.6,0,1-0.1,1.2-0.2
			C127.9,22.8,128,22.5,128,22.2z"/>
		<path class="st4" d="M133.7,16.5h-2.1v-1.7h2.1V16.5z M133.7,24.3h-2.1v-7h2.1V24.3z"/>
		<path class="st4" d="M141.2,21.5v0.9c0,0.3-0.1,0.6-0.2,0.9c-0.1,0.3-0.3,0.4-0.5,0.6c-0.2,0.1-0.5,0.2-0.8,0.3
			c-0.3,0.1-0.6,0.1-0.9,0.2c-0.3,0-0.6,0-1,0c-0.8,0-1.7-0.1-2.8-0.2v-1.4c1.3,0.2,2.3,0.3,2.8,0.3c0.4,0,0.7,0,1-0.1
			c0.2-0.1,0.3-0.2,0.3-0.5v-0.4c0-0.2-0.1-0.4-0.2-0.5c-0.1-0.1-0.4-0.2-0.8-0.2h-0.9c-0.7,0-1.3-0.1-1.7-0.4
			c-0.4-0.3-0.6-0.7-0.6-1.3v-0.9c0-0.6,0.3-1.1,0.9-1.3c0.6-0.2,1.5-0.4,2.6-0.4c0.5,0,1.3,0,2.5,0.1v1.3c-1.5-0.1-2.3-0.2-2.5-0.2
			c-0.6,0-1,0-1.1,0.1c-0.2,0.1-0.2,0.2-0.2,0.5v0.4c0,0.1,0.1,0.2,0.2,0.3c0.1,0.1,0.3,0.1,0.6,0.1h0.9
			C140.3,19.9,141.2,20.4,141.2,21.5z"/>
		<path class="st4" d="M147,24.3c-0.4,0-0.8,0.1-1.2,0.1c-0.3,0-0.6,0-0.9,0c-0.2,0-0.5-0.1-0.8-0.2c-0.3-0.1-0.5-0.2-0.6-0.4
			c-0.2-0.1-0.3-0.4-0.4-0.6c-0.1-0.3-0.2-0.6-0.2-1v-3.6h-1.4v-1.3h1.4v-2h2.1v2h1.9v1.3H145v3.3c0,0.5,0.1,0.8,0.2,1
			c0.1,0.2,0.5,0.3,1,0.3c0.2,0,0.4,0,0.8-0.1V24.3z"/>
		<path class="st4" d="M152.3,18.9h-0.7c-0.6,0-1,0.1-1.3,0.3c-0.3,0.2-0.4,0.5-0.4,0.9v4.2h-2.1v-7h2v1.2c0-0.3,0.2-0.7,0.6-0.9
			c0.4-0.3,0.8-0.4,1.2-0.4h0.8V18.9z"/>
		<path class="st4" d="M159.3,24.3h-2.1v-0.6c-0.2,0.3-0.4,0.5-0.7,0.6c-0.3,0.1-0.8,0.2-1.6,0.2c-0.9,0-1.6-0.1-1.9-0.4
			c-0.3-0.3-0.5-0.9-0.5-1.8c0-0.8,0.2-1.4,0.5-1.7c0.3-0.3,0.9-0.5,1.7-0.5h2.4v-0.5c0-0.4-0.1-0.7-0.3-0.8
			c-0.2-0.1-0.6-0.2-1.2-0.2c-0.6,0-1.4,0.1-2.5,0.2v-1.3c0.8-0.1,1.7-0.1,2.7-0.1c1.3,0,2.2,0.2,2.7,0.5c0.5,0.3,0.8,0.9,0.8,1.9
			V24.3z M157.2,22.5v-1.4h-1.4c-0.5,0-0.8,0.1-0.9,0.2c-0.1,0.1-0.2,0.4-0.2,0.9c0,0.5,0.1,0.7,0.2,0.8c0.1,0.1,0.4,0.1,0.9,0.1
			c0.2,0,0.4,0,0.5,0c0.1,0,0.2,0,0.4,0c0.1,0,0.2-0.1,0.3-0.1c0.1,0,0.1-0.1,0.1-0.2C157.2,22.7,157.2,22.6,157.2,22.5z"/>
		<path class="st4" d="M165.4,24.3c-0.4,0-0.8,0.1-1.2,0.1c-0.3,0-0.6,0-0.9,0c-0.2,0-0.5-0.1-0.8-0.2c-0.3-0.1-0.5-0.2-0.6-0.4
			c-0.2-0.1-0.3-0.4-0.4-0.6c-0.1-0.3-0.2-0.6-0.2-1v-3.6H160v-1.3h1.4v-2h2.1v2h1.9v1.3h-1.9v3.3c0,0.5,0.1,0.8,0.2,1
			c0.1,0.2,0.5,0.3,1,0.3c0.2,0,0.4,0,0.8-0.1V24.3z"/>
		<path class="st4" d="M168.3,16.5h-2.1v-1.7h2.1V16.5z M168.3,24.3h-2.1v-7h2.1V24.3z"/>
		<path class="st4" d="M176.7,19.8v2.1c0,0.5-0.1,0.8-0.2,1.2c-0.1,0.3-0.3,0.6-0.5,0.8c-0.2,0.2-0.5,0.3-0.8,0.4
			c-0.3,0.1-0.7,0.2-0.9,0.2c-0.3,0-0.6,0-1,0c-0.4,0-0.7,0-1,0c-0.3,0-0.6-0.1-0.9-0.2c-0.3-0.1-0.6-0.2-0.8-0.4
			c-0.2-0.2-0.4-0.4-0.5-0.8c-0.1-0.3-0.2-0.7-0.2-1.2v-2.1c0-0.5,0.1-0.9,0.2-1.2c0.1-0.3,0.3-0.6,0.5-0.8c0.2-0.2,0.5-0.3,0.8-0.4
			c0.3-0.1,0.7-0.2,0.9-0.2c0.3,0,0.6,0,1,0c0.4,0,0.7,0,1,0c0.3,0,0.6,0.1,0.9,0.2c0.3,0.1,0.6,0.2,0.8,0.4
			c0.2,0.2,0.4,0.4,0.5,0.8C176.6,18.9,176.7,19.3,176.7,19.8z M174.6,22.1v-2.6c0-0.4-0.1-0.6-0.3-0.8c-0.2-0.2-0.6-0.2-1.2-0.2
			c-0.6,0-1,0.1-1.2,0.2c-0.2,0.2-0.3,0.4-0.3,0.8v2.6c0,0.4,0.1,0.6,0.3,0.8c0.2,0.1,0.6,0.2,1.2,0.2s1-0.1,1.2-0.2
			C174.5,22.7,174.6,22.5,174.6,22.1z"/>
		<path class="st4" d="M184.6,24.3h-2.1v-4.8c0-0.4-0.1-0.6-0.2-0.8c-0.1-0.1-0.4-0.2-0.9-0.2c-0.6,0-1,0.1-1.2,0.2
			c-0.2,0.1-0.2,0.4-0.2,0.8v4.8h-2.1v-7h2.1v0.9c0.2-0.7,0.9-1,2.2-1c0.9,0,1.6,0.2,1.9,0.5c0.3,0.3,0.5,0.8,0.5,1.5V24.3z"/>
	</g>
	<g>
		<path class="st5" d="M37.7,12.6c0,0-12.6-1.1-16.1,2.3h10.6C32.2,14.9,35.3,12.7,37.7,12.6z"/>
		<ellipse transform="matrix(0.1117 -0.9937 0.9937 0.1117 10.0036 58.1301)" class="st5" cx="37.5" cy="23.5" rx="3.6" ry="1.5"/>
		<path class="st5" d="M38.4,15.4c1.5,0.5,2.5,2,5.6,0.5l-2.9-2.7c0,0-3.2-1.5-7.9,1.7C33.2,14.9,36.1,14.7,38.4,15.4z"/>
		<ellipse transform="matrix(0.1117 -0.9937 0.9937 0.1117 23.7228 71.7688)" class="st5" cx="52" cy="22.6" rx="3" ry="1.3"/>
		<path class="st0" d="M38,19.2c-2.1-0.3-3.3,4-3.8,5.4c-0.3,0.7-0.7,1.1-1,1.3h-5.7l5.9,0.7c0.1,0.1,0.1,0.2,0.2,0.3h-5.8l7.3,0.9
			c0.1,0,0.3,0,0.4,0.1c0,0,0,0,0,0c0.1,0,0.2,0,0.2,0c2.5,0,2.8-0.9,3.3-1.9C39.9,23.7,39.8,19.5,38,19.2z M39,23.6
			c-0.2,2-1.1,3.5-1.9,3.4c-0.8-0.1-1.3-1.8-1.1-3.7c0.2-2,1.1-3.5,1.9-3.4C38.7,20,39.2,21.7,39,23.6z"/>
		<path class="st0" d="M33.9,24.3c0.7-1.6,2-6.3,4.3-6c1.1,0.1,1.6,1.7,1.7,3.4c4.8,2.2,8.1,1.9,9.2,1.7c0.7-2.5,1.5-5.3,2.9-5.4
			l0.3,0c0,0,0,0,0,0c0-0.1-0.5-1-2-1.3c-0.1,0-0.2,0-0.3,0c-0.1,0-0.1,0-0.1,0s0,0-0.1,0c-1.3-0.2-3.8-0.6-4.6-0.7
			c-0.3-0.3-2.9-2.6-3.5-3c-0.6-0.4-1.9-0.6-1.9-0.6c-12.1-1.8-18.6,1.8-20.1,2.7H5.1l8.4,1H5.4l8.2,1c0,0,0,0,0,0H5.7l7.6,0.9
			c0,0,0,0.1,0,0.1H6l7.1,0.8c0,0.1,0,0.1,0,0.2H6.3l6.7,0.8c0,0.1,0,0.1,0,0.2H6.6l6.3,0.7c0,0.1,0,0.2,0,0.3H6.9l5.9,0.7
			c0,0.1,0,0.2,0,0.3H7.2l5.6,0.7c0,0.1,0,0.2,0,0.3H7.6l5.5,0.6c0,0.1,0.1,0.2,0.1,0.3H7.9l5.5,0.6c0,0.1,0.1,0.2,0.2,0.3H8.2
			l5.7,0.7c0,0.1,0.1,0.2,0.2,0.3H8.5l6,0.7c0.1,0.1,0.2,0.2,0.3,0.3h-6l7.8,0.9c0.1,0,0.2,0,0.3,0.1c0.2,0,0.3,0,0.5,0
			c1.5,0.1,2.4-0.4,2.9-1c0.6-0.6,0.8-1.2,0.8-1.4l11.9,0.2C33.3,25.4,33.6,25.2,33.9,24.3z M41.1,13.3l2.9,2.7
			c-3.1,1.4-4.1-0.1-5.6-0.5c-2.4-0.7-5.2-0.5-5.2-0.5C37.9,11.7,41.1,13.3,41.1,13.3z M37.7,12.6c-2.4,0-5.5,2.3-5.5,2.3H21.6
			C25.1,11.6,37.7,12.6,37.7,12.6z M31,19.1H18.7l-7-0.8h6.6l-6.9-1h7.1h0h0l-7.4-1h8.3H33L31,19.1z"/>
		<path class="st0" d="M48.9,24.2c0-0.1,0.1-0.2,0.1-0.3c-3.5,0.5-8.1-0.6-9.1-0.9c-0.1,1-0.2,2-0.5,2.8l8.4-0.6
			C48.7,25.1,48.9,24.2,48.9,24.2z"/>
		<polygon class="st4" points="11,16.4 18.4,17.3 18.4,17.3 18.4,17.3 11.4,17.3 18.2,18.3 11.7,18.3 18.7,19.1 31,19.1 33,16.4 
			19.3,16.4 		"/>
		<path class="st0" d="M53.8,21.1c-0.1-3-2-2.8-2.7-1.9c-0.7,0.9-1.2,4.2-1.7,5.4c-0.2,0.4-0.5,0.6-0.7,0.7c0,0.1,0.1,0.3,0.3,0.5
			l-5,0.2l6.8,0.6c0,0,0.7,0.1,1.4-0.3c0.6-0.3,1.2-1.1,1.5-2.6C53.6,23.7,53.9,22.2,53.8,21.1z M53.3,22.8
			c-0.2,1.7-0.9,2.9-1.6,2.9c-0.7-0.1-1.1-1.5-0.9-3.1c0.2-1.7,0.9-2.9,1.6-2.9C53,19.7,53.4,21.1,53.3,22.8z"/>
	</g>
	<g>
		<path class="st4" d="M186.9,25.2h-0.7v-0.6h0.7V25.2z"/>
		<path class="st4" d="M190.1,23.3v1c0,0.2,0,0.3-0.1,0.4c0,0.1-0.1,0.2-0.2,0.3c-0.1,0.1-0.2,0.1-0.3,0.2c-0.1,0-0.2,0.1-0.4,0.1
			c-0.1,0-0.3,0-0.4,0c-0.2,0-0.4,0-0.5,0c-0.1,0-0.3-0.1-0.4-0.1c-0.1-0.1-0.2-0.2-0.3-0.3c-0.1-0.1-0.1-0.3-0.1-0.5v-1
			c0-0.2,0-0.3,0.1-0.5c0-0.1,0.1-0.2,0.2-0.3c0.1-0.1,0.2-0.1,0.3-0.2c0.1,0,0.2-0.1,0.3-0.1c0.1,0,0.3,0,0.4,0c0.2,0,0.3,0,0.4,0
			c0.1,0,0.2,0,0.3,0.1s0.2,0.1,0.3,0.2c0.1,0.1,0.1,0.2,0.2,0.3C190.1,23,190.1,23.2,190.1,23.3z M189.6,24.4v-1.1
			c0-0.3-0.1-0.4-0.2-0.5c-0.1-0.1-0.3-0.1-0.6-0.1c-0.3,0-0.5,0-0.6,0.1S188,23,188,23.3v1.1c0,0.1,0,0.2,0,0.3
			c0,0.1,0.1,0.1,0.2,0.2c0.1,0,0.2,0.1,0.2,0.1c0.1,0,0.2,0,0.3,0c0.2,0,0.3,0,0.3,0c0.1,0,0.2,0,0.2-0.1c0.1,0,0.1-0.1,0.2-0.2
			C189.6,24.6,189.6,24.5,189.6,24.4z"/>
		<path class="st4" d="M192.3,22.8H192c-0.2,0-0.4,0-0.5,0.1c-0.1,0.1-0.2,0.2-0.2,0.4v2h-0.5v-2.8h0.5v0.5c0-0.1,0.1-0.3,0.3-0.4
			c0.2-0.1,0.3-0.2,0.5-0.2h0.3V22.8z"/>
		<path class="st4" d="M195.1,22.4v3.1c0,0.4-0.1,0.7-0.3,0.8c-0.2,0.1-0.6,0.2-1,0.2c-0.4,0-0.7,0-1-0.1v-0.4
			c0.4,0.1,0.8,0.1,1,0.1c0.3,0,0.5,0,0.6-0.1c0.1-0.1,0.2-0.2,0.2-0.4v-0.7c0,0.1-0.1,0.2-0.3,0.3c-0.2,0.1-0.4,0.1-0.6,0.1
			c-0.4,0-0.7-0.1-0.9-0.2c-0.2-0.1-0.2-0.4-0.2-0.7v-1.2c0-0.3,0.1-0.6,0.3-0.7c0.2-0.1,0.5-0.2,0.9-0.2c0.5,0,0.8,0.1,0.9,0.3
			v-0.3H195.1z M194.5,24.5v-1.3c0-0.2,0-0.3-0.1-0.4c-0.1-0.1-0.3-0.1-0.6-0.1c-0.3,0-0.5,0-0.6,0.1c-0.1,0.1-0.1,0.2-0.1,0.4v1.3
			c0,0.2,0,0.3,0.1,0.4c0.1,0.1,0.3,0.1,0.6,0.1c0.3,0,0.5,0,0.6-0.1C194.5,24.8,194.5,24.6,194.5,24.5z"/>
	</g>
</g>
</svg>
